%YAML 1.1
%TAG !u! tag:unity3d.com,2011:
--- !u!1045 &1
EditorBuildSettings:
  m_ObjectHideFlags: 0
  serializedVersion: 2
  m_Scenes:
  - enabled: 0
    path: Assets/Scenes/ARCollaborationData/ARCollaborationDataExample.unity
    guid: 900e7bfe6122645fba71b90941afb9c5
  - enabled: 0
    path: Assets/Scenes/ARWorldMap.unity
    guid: 8d8902fd0b55449dcbf3572b49d6b1b1
  - enabled: 0
    path: Assets/Scenes/CameraImage.unity
    guid: e769916924fd3814ab1d9474de816b22
  - enabled: 0
    path: Assets/Scenes/Check Support.unity
    guid: cf67ab53e5ff241dfa61608222d82109
  - enabled: 0
    path: Assets/Scenes/EnvironmentProbes.unity
    guid: d568d188cadf141e38769dbabd3fe385
  - enabled: 0
    path: Assets/Scenes/FaceTracking/ARCoreFaceRegions.unity
    guid: d1739ac106ca65e4b83528a440314bd9
  - enabled: 0
    path: Assets/Scenes/FaceTracking/ARKitFaceBlendShapes.unity
    guid: e9280441e79e84bdbbf6b724880ae2d9
  - enabled: 0
    path: Assets/Scenes/FaceTracking/FaceMesh.unity
    guid: 047514b96a5d44d6bb0acbfa06ace943
  - enabled: 0
    path: Assets/Scenes/FaceTracking/FacePose.unity
    guid: d8b65509a10894e1dbb93c799ececfd9
  - enabled: 0
    path: Assets/Scenes/FaceTracking/RearCameraWithFrontCameraFaceMesh.unity
    guid: ecea31d2ea5464e52bedb91fa1fcb6bb
  - enabled: 0
    path: Assets/Scenes/HumanSegmentation/HumanBodyTracking2D.unity
    guid: b2551dd1f69e7446e9093f0f38e03160
  - enabled: 0
    path: Assets/Scenes/HumanSegmentation/HumanBodyTracking3D.unity
    guid: 9fc1f5ed98d414310a8b9e659c295d7c
  - enabled: 0
    path: Assets/Scenes/HumanSegmentation/HumanSegmentationImages.unity
    guid: ed5207d50697d40d688249cd6c59608b
  - enabled: 0
    path: Assets/Scenes/ImageTracking/ImageTracking.unity
    guid: e0b018a3c3b5cfd4c8e316706ec0a18c
  - enabled: 0
    path: Assets/Scenes/LightEstimation.unity
    guid: 2f0cbc82480584c258f99f0d9e4ba302
  - enabled: 0
    path: Assets/Scenes/Object Tracking/ObjectTracking.unity
    guid: 8f797cefb98fe43109524cbbcc8faafc
  - enabled: 0
    path: Assets/Scenes/Plane Detection/FeatheredPlanes.unity
    guid: 8252358a1e2ba7549a94df43aacec984
  - enabled: 0
    path: Assets/Scenes/Plane Detection/TogglePlaneDetection.unity
    guid: eb4bbb3a5e81acc41a903b1c5f1c827b
  - enabled: 0
    path: Assets/Scenes/Scale.unity
    guid: 13ac91f677dc22f4ca320ef8ae727b68
  - enabled: 1
    path: Assets/Scenes/SimpleAR/SimpleAR.unity
    guid: 99c9720ab356a0642a771bea13969a05
  - enabled: 0
    path: Assets/Scenes/UX/SampleUXScene.unity
    guid: 3b42d67a72bbc4004bf713db0e312326
  - enabled: 0
    path: Assets/Scenes/ReferencePoints.unity
    guid: 5cba9114a192a46a7aef31da62316e39
  - enabled: 0
    path: Assets/Scenes/Custom/Test.unity
    guid: befa4ef66434d824baff6cac7c7bfa5a
  m_configObjects:
    com.unity.xr.arkit.PlayerSettings: {fileID: 11400000, guid: 2d5fb8e61571b4e3897f221189089fd6,
      type: 2}
